/home/ketaj271969/git/spring-tutorial-5/src/main/java/rocks/superfly/spring/test/PersonFactory.java
/home/ketaj271969/git/spring-tutorial-5/src/main/java/rocks/superfly/spring/test/Person.java
/home/ketaj271969/git/spring-tutorial-5/src/main/java/rocks/superfly/spring/test/Address.java
/home/ketaj271969/git/spring-tutorial-5/src/main/java/rocks/superfly/spring/test/props/package-info.java
/home/ketaj271969/git/spring-tutorial-5/src/main/java/rocks/superfly/spring/test/App.java
